<define-tag pagetitle>DLA-3219-1 jhead</define-tag>
<define-tag report_date>2022-12-04</define-tag>
<define-tag secrefs>CVE-2021-34055 CVE-2022-41751 Bug#1024272 Bug#1022028</define-tag>
<define-tag packages>jhead</define-tag>
<define-tag isvulnerable>yes</define-tag>
<define-tag fixed>yes</define-tag>
<define-tag fixed-section>no</define-tag>

#use wml::debian::security

