<define-tag pagetitle>DLA-2900-1 lrzsz</define-tag>
<define-tag report_date>2022-1-25</define-tag>
<define-tag secrefs>CVE-2018-10195</define-tag>
<define-tag packages>lrzsz</define-tag>
<define-tag isvulnerable>yes</define-tag>
<define-tag fixed>yes</define-tag>
<define-tag fixed-section>no</define-tag>

#use wml::debian::security

