<define-tag pagetitle>DLA-3118-1 unzip</define-tag>
<define-tag report_date>2022-09-22</define-tag>
<define-tag secrefs>CVE-2022-0529 CVE-2022-0530 Bug#1010355</define-tag>
<define-tag packages>unzip</define-tag>
<define-tag isvulnerable>yes</define-tag>
<define-tag fixed>yes</define-tag>
<define-tag fixed-section>no</define-tag>

#use wml::debian::security

