<define-tag pagetitle>DLA-3099-1 qemu</define-tag>
<define-tag report_date>2022-09-05</define-tag>
<define-tag secrefs>CVE-2020-13253 CVE-2020-15469 CVE-2020-15859 CVE-2020-25084 CVE-2020-25085 CVE-2020-25624 CVE-2020-25625 CVE-2020-25723 CVE-2020-27617 CVE-2020-27821 CVE-2020-28916 CVE-2020-29129 CVE-2020-29443 CVE-2020-35504 CVE-2020-35505 CVE-2021-3392 CVE-2021-3416 CVE-2021-3507 CVE-2021-3527 CVE-2021-3582 CVE-2021-3607 CVE-2021-3608 CVE-2021-3682 CVE-2021-3713 CVE-2021-3748 CVE-2021-3930 CVE-2021-4206 CVE-2021-4207 CVE-2021-20181 CVE-2021-20196 CVE-2021-20203 CVE-2021-20221 CVE-2021-20257 CVE-2022-26354 CVE-2022-35414</define-tag>
<define-tag packages>qemu</define-tag>
<define-tag isvulnerable>yes</define-tag>
<define-tag fixed>yes</define-tag>
<define-tag fixed-section>no</define-tag>

#use wml::debian::security

