<define-tag pagetitle>DLA-2954-1 python-treq</define-tag>
<define-tag report_date>2022-03-18</define-tag>
<define-tag secrefs>CVE-2022-23607</define-tag>
<define-tag packages>python-treq</define-tag>
<define-tag isvulnerable>yes</define-tag>
<define-tag fixed>yes</define-tag>
<define-tag fixed-section>no</define-tag>

#use wml::debian::security
