<define-tag pagetitle>DLA-3175-1 python3.7</define-tag>
<define-tag report_date>2022-11-01</define-tag>
<define-tag secrefs>CVE-2022-37454</define-tag>
<define-tag packages>python3.7</define-tag>
<define-tag isvulnerable>yes</define-tag>
<define-tag fixed>yes</define-tag>
<define-tag fixed-section>no</define-tag>

#use wml::debian::security

