<define-tag pagetitle>DLA-3107-1 sqlite3</define-tag>
<define-tag report_date>2022-09-13</define-tag>
<define-tag secrefs>CVE-2020-35525 CVE-2020-35527</define-tag>
<define-tag packages>sqlite3</define-tag>
<define-tag isvulnerable>yes</define-tag>
<define-tag fixed>yes</define-tag>
<define-tag fixed-section>no</define-tag>

#use wml::debian::security
