<define-tag pagetitle>DLA-3043-1 pidgin</define-tag>
<define-tag report_date>2022-06-06</define-tag>
<define-tag secrefs>CVE-2022-26491</define-tag>
<define-tag packages>pidgin</define-tag>
<define-tag isvulnerable>yes</define-tag>
<define-tag fixed>yes</define-tag>
<define-tag fixed-section>no</define-tag>

#use wml::debian::security

