<define-tag pagetitle>DSA-4840-1 firefox-esr</define-tag>
<define-tag report_date>2021-1-27</define-tag>
<define-tag secrefs>CVE-2020-26976 CVE-2021-23953 CVE-2021-23954 CVE-2021-23960 CVE-2021-23964</define-tag>
<define-tag packages>firefox-esr</define-tag>
<define-tag isvulnerable>yes</define-tag>
<define-tag fixed>yes</define-tag>
<define-tag fixed-section>no</define-tag>

#use wml::debian::security



</dl>
