<define-tag pagetitle>DSA-4730-1 ruby-sanitize</define-tag>
<define-tag report_date>2020-7-19</define-tag>
<define-tag secrefs>CVE-2020-4054 Bug#963808</define-tag>
<define-tag packages>ruby-sanitize</define-tag>
<define-tag isvulnerable>yes</define-tag>
<define-tag fixed>yes</define-tag>
<define-tag fixed-section>no</define-tag>

#use wml::debian::security



</dl>
