<define-tag pagetitle>DLA-1217-1 irssi</define-tag>
<define-tag report_date>2017-12-23</define-tag>
<define-tag secrefs>CVE-2017-5193 CVE-2017-5194 CVE-2017-5356 CVE-2017-15227 CVE-2017-15228 CVE-2017-15721 CVE-2017-15722 Bug#879521</define-tag>
<define-tag packages>irssi</define-tag>
<define-tag isvulnerable>yes</define-tag>
<define-tag fixed>yes</define-tag>
<define-tag fixed-section>no</define-tag>

#use wml::debian::security

