<define-tag pagetitle>DLA-3345-1 php7.3</define-tag>
<define-tag report_date>2023-02-26</define-tag>
<define-tag secrefs>CVE-2022-31631 CVE-2023-0567 CVE-2023-0568 CVE-2023-0662 Bug#1031368</define-tag>
<define-tag packages>php7.3</define-tag>
<define-tag isvulnerable>yes</define-tag>
<define-tag fixed>yes</define-tag>
<define-tag fixed-section>no</define-tag>

#use wml::debian::security

