<define-tag pagetitle>DLA-2450-1 libproxy</define-tag>
<define-tag report_date>2020-11-13</define-tag>
<define-tag secrefs>CVE-2020-26154 Bug#968366</define-tag>
<define-tag packages>libproxy</define-tag>
<define-tag isvulnerable>yes</define-tag>
<define-tag fixed>yes</define-tag>
<define-tag fixed-section>no</define-tag>

#use wml::debian::security

