<define-tag pagetitle>DLA-2118-1 otrs2</define-tag>
<define-tag report_date>2020-02-24</define-tag>
<define-tag secrefs>CVE-2019-11358 Bug#927385</define-tag>
<define-tag packages>otrs2</define-tag>
<define-tag isvulnerable>yes</define-tag>
<define-tag fixed>yes</define-tag>
<define-tag fixed-section>no</define-tag>

#use wml::debian::security

