<define-tag pagetitle>DLA-1339-1 openjdk-7</define-tag>
<define-tag report_date>2018-4-3</define-tag>
<define-tag secrefs>CVE-2018-2579 CVE-2018-2588 CVE-2018-2599 CVE-2018-2602 CVE-2018-2603 CVE-2018-2618 CVE-2018-2629 CVE-2018-2633 CVE-2018-2634 CVE-2018-2637 CVE-2018-2641 CVE-2018-2663 CVE-2018-2677 CVE-2018-2678 Bug#891330</define-tag>
<define-tag packages>openjdk-7</define-tag>
<define-tag isvulnerable>yes</define-tag>
<define-tag fixed>yes</define-tag>
<define-tag fixed-section>no</define-tag>

#use wml::debian::security

