<define-tag pagetitle>DLA-1963-2 poppler</define-tag>
<define-tag report_date>2019-10-18</define-tag>
<define-tag secrefs>CVE-2019-10871 Bug#942503</define-tag>
<define-tag packages>poppler</define-tag>
<define-tag isvulnerable>yes</define-tag>
<define-tag fixed>yes</define-tag>
<define-tag fixed-section>no</define-tag>

#use wml::debian::security

