<define-tag pagetitle>DLA-1948-1 ruby-mini-magick</define-tag>
<define-tag report_date>2019-10-07</define-tag>
<define-tag secrefs>CVE-2019-13574 Bug#931932</define-tag>
<define-tag packages>ruby-mini-magick</define-tag>
<define-tag isvulnerable>yes</define-tag>
<define-tag fixed>yes</define-tag>
<define-tag fixed-section>no</define-tag>

#use wml::debian::security

