<define-tag pagetitle>DLA-2021-1 libav</define-tag>
<define-tag report_date>2019-12-05</define-tag>
<define-tag secrefs>CVE-2017-17127 CVE-2017-18245 CVE-2018-19128 CVE-2018-19130 CVE-2019-14443 CVE-2019-17542</define-tag>
<define-tag packages>libav</define-tag>
<define-tag isvulnerable>yes</define-tag>
<define-tag fixed>yes</define-tag>
<define-tag fixed-section>no</define-tag>

#use wml::debian::security

