<define-tag pagetitle>DSA-111-1 ucd-snmp</define-tag>
<define-tag report_date>2002-2-14</define-tag>
<define-tag packages>ucd-snmp</define-tag>
<define-tag secrefs>CVE-2002-0012 CVE-2002-0013 VU#854306 VU#107186 CA-2002-03</define-tag>
<define-tag isvulnerable>yes</define-tag>
<define-tag fixed>yes</define-tag>

#use wml::debian::security

<h3>Debian GNU/Linux 2.2 (potato)</h3>

<dl>
<dt><source>
  <dd><fileurl http://security.debian.org/dists/stable/updates/main/source/ucd-snmp_4.1.1-2.2.diff.gz>
  <dd><fileurl http://security.debian.org/dists/stable/updates/main/source/ucd-snmp_4.1.1-2.2.dsc>
  <dd><fileurl http://security.debian.org/dists/stable/updates/main/source/ucd-snmp_4.1.1.orig.tar.gz>

<dt>Alpha:
  <dd><fileurl http://security.debian.org/dists/stable/updates/main/binary-alpha/libsnmp4.1-dev_4.1.1-2.2_alpha.deb>
  <dd><fileurl http://security.debian.org/dists/stable/updates/main/binary-alpha/libsnmp4.1_4.1.1-2.2_alpha.deb>
  <dd><fileurl http://security.debian.org/dists/stable/updates/main/binary-alpha/snmp_4.1.1-2.2_alpha.deb>
  <dd><fileurl http://security.debian.org/dists/stable/updates/main/binary-alpha/snmpd_4.1.1-2.2_alpha.deb>

<dt>ARM:
  <dd><fileurl http://security.debian.org/dists/stable/updates/main/binary-arm/libsnmp4.1-dev_4.1.1-2.2_arm.deb>
  <dd><fileurl http://security.debian.org/dists/stable/updates/main/binary-arm/libsnmp4.1_4.1.1-2.2_arm.deb>
  <dd><fileurl http://security.debian.org/dists/stable/updates/main/binary-arm/snmp_4.1.1-2.2_arm.deb>
  <dd><fileurl http://security.debian.org/dists/stable/updates/main/binary-arm/snmpd_4.1.1-2.2_arm.deb>

<dt>Intel IA-32:
  <dd><fileurl http://security.debian.org/dists/stable/updates/main/binary-i386/libsnmp4.1-dev_4.1.1-2.2_i386.deb>
  <dd><fileurl http://security.debian.org/dists/stable/updates/main/binary-i386/libsnmp4.1_4.1.1-2.2_i386.deb>
  <dd><fileurl http://security.debian.org/dists/stable/updates/main/binary-i386/snmp_4.1.1-2.2_i386.deb>
  <dd><fileurl http://security.debian.org/dists/stable/updates/main/binary-i386/snmpd_4.1.1-2.2_i386.deb>

<dt>Motorola 680x0:
  <dd><fileurl http://security.debian.org/dists/stable/updates/main/binary-m68k/libsnmp4.1-dev_4.1.1-2.2_m68k.deb>
  <dd><fileurl http://security.debian.org/dists/stable/updates/main/binary-m68k/libsnmp4.1_4.1.1-2.2_m68k.deb>
  <dd><fileurl http://security.debian.org/dists/stable/updates/main/binary-m68k/snmp_4.1.1-2.2_m68k.deb>
  <dd><fileurl http://security.debian.org/dists/stable/updates/main/binary-m68k/snmpd_4.1.1-2.2_m68k.deb>

<dt>Sun Sparc:
  <dd><fileurl http://security.debian.org/dists/stable/updates/main/binary-sparc/libsnmp4.1-dev_4.1.1-2.2_sparc.deb>
  <dd><fileurl http://security.debian.org/dists/stable/updates/main/binary-sparc/libsnmp4.1_4.1.1-2.2_sparc.deb>
  <dd><fileurl http://security.debian.org/dists/stable/updates/main/binary-sparc/snmp_4.1.1-2.2_sparc.deb>
  <dd><fileurl http://security.debian.org/dists/stable/updates/main/binary-sparc/snmpd_4.1.1-2.2_sparc.deb>
</dl>

<p><md5sums https://lists.debian.org/debian-security-announce/debian-security-announce-2002/msg00024.html>
